…
```r
deserts%>%
  group_by(species)%>%
  filter(weight!="NA")%>%
  count(n_distinct(record_id))
```

```
## # A tibble: 22 x 3
## # Groups:   species [22]
##    species     `n_distinct(record_id)`     n
##    <chr>                         <int> <int>
##  1 albigula                      32283  1152
##  2 baileyi                       32283  2810
##  3 eremicus                      32283  1260
##  4 flavus                        32283  1548
##  5 fulvescens                    32283    75
##  6 fulviventer                   32283    41
##  7 hispidus                      32283   172
##  8 intermedius                   32283     8
##  9 leucogaster                   32283   970
## 10 leucopus                      32283    36
## # ... with 12 more rows
```
…
9. Which two species have, on average, the highest weight? Once you have identified them, make a new column that is a ratio of `weight` to `hindfoot_length`. Make a plot that shows the range of this new ratio and fill by sex.

```r
deserts%>%
  group_by(species)%>%
  summarise(mean_weight=mean(weight,na.rm=T))%>%
  arrange(desc(mean_weight))
```

```
## # A tibble: 40 x 2
##    species      mean_weight
##    <chr>              <dbl>
##  1 albigula           159. 
##  2 spectabilis        120. 
##  3 spilosoma           93.5
##  4 hispidus            65.6
##  5 fulviventer         58.9
##  6 ochrognathus        55.4
##  7 ordii               48.9
##  8 merriami            43.2
##  9 baileyi             31.7
## 10 leucogaster         31.6
## # ... with 30 more rows
```

```r
deserts2<-deserts%>%
  mutate(Weight_hindfoot_ratio=(weight/hindfoot_length))
deserts2
```

```
## # A tibble: 34,786 x 14
##    record_id month   day  year plot_id species_id sex   hindfoot_length weight
##        <dbl> <dbl> <dbl> <dbl>   <dbl> <chr>      <chr>           <dbl>  <dbl>
##  1         1     7    16  1977       2 NL         M                  32     NA
##  2         2     7    16  1977       3 NL         M                  33     NA
##  3         3     7    16  1977       2 DM         F                  37     NA
##  4         4     7    16  1977       7 DM         M                  36     NA
##  5         5     7    16  1977       3 DM         M                  35     NA
##  6         6     7    16  1977       1 PF         M                  14     NA
##  7         7     7    16  1977       2 PE         F                  NA     NA
##  8         8     7    16  1977       1 DM         M                  37     NA
##  9         9     7    16  1977       1 DM         F                  34     NA
## 10        10     7    16  1977       6 PF         F                  20     NA
## # ... with 34,776 more rows, and 5 more variables: genus <chr>, species <chr>,
## #   taxa <chr>, plot_type <chr>, Weight_hindfoot_ratio <dbl>
```
…
