…
#The following are some ideas for graphs that I thought would be good to include, but we can each come up and explore some of our own to compile into the final product


```r
turtles3%>%
  group_by(year)%>%
  summarise(n())
```

```
## # A tibble: 28 x 2
##     year `n()`
##  * <int> <int>
##  1  1988   154
##  2  1989    82
##  3  1990    18
##  4  1991    17
##  5  1992    50
##  6  1993    22
##  7  1994   193
##  8  1995   464
##  9  1996   500
## 10  1997   463
## # ... with 18 more rows
```
…
```r
turtles3%>%
  group_by(Capture_day)%>%
  summarise(n())
```

```
## # A tibble: 31 x 2
##    Capture_day `n()`
##  *       <int> <int>
##  1           1   432
##  2           2   415
##  3           3   222
##  4           4   383
##  5           5   445
##  6           6   469
##  7           7   487
##  8           8   374
##  9           9   458
## 10          10   586
## # ... with 21 more rows
```
…
