…
```r
turtles%>%
  naniar::miss_var_summary()
```

```
## # A tibble: 72 x 3
##    variable        n_miss pct_miss
##    <chr>            <int>    <dbl>
##  1 Tail             13427     99.9
##  2 Lysis_tube_ID    11757     87.5
##  3 Depth_.mid       11206     83.4
##  4 PCV               9702     72.2
##  5 TS                9702     72.2
##  6 Skin_Biopsy_ID    8858     65.9
##  7 Weight            7080     52.7
##  8 TestLevel_After   6652     49.5
##  9 Circumference     5793     43.1
## 10 Girth             5622     41.8
## # ... with 62 more rows
```
…
```r
turtles%>%
  group_by(year)%>%
  count(Dead_Alive)
```

```
## # A tibble: 46 x 3
## # Groups:   year [28]
##     year Dead_Alive     n
##    <int> <chr>      <int>
##  1  1988 Alive        154
##  2  1989 Alive         82
##  3  1990 Alive         18
##  4  1991 Alive         17
##  5  1992 Alive         50
##  6  1993 Alive         22
##  7  1994 Alive        191
##  8  1994 Dead           2
##  9  1995 Alive        452
## 10  1995 Dead          12
## # ... with 36 more rows
```
…
