…
```r
deserts %>% 
  filter(species_id=="DM" | species_id=="DS") %>% 
  group_by(year, species_id) %>% 
  summarise(n=n())
```

```
## `summarise()` has grouped output by 'year'. You can override using the `.groups` argument.
```

```
## # A tibble: 47 x 3
## # Groups:   year [26]
##     year species_id     n
##    <dbl> <chr>      <int>
##  1  1977 DM           264
##  2  1977 DS            98
##  3  1978 DM           389
##  4  1978 DS           320
##  5  1979 DM           209
##  6  1979 DS           204
##  7  1980 DM           493
##  8  1980 DS           346
##  9  1981 DM           559
## 10  1981 DS           354
## # ... with 37 more rows
```
…
```r
Small_range<-homerange%>%
  filter(range_category=="small")
Small_range
```

```
## # A tibble: 143 x 26
##    taxon common.name class order family genus species primarymethod N    
##    <chr> <chr>       <chr> <chr> <chr>  <chr> <chr>   <chr>         <chr>
##  1 mari~ pollack     acti~ gadi~ gadid~ poll~ pollac~ telemetry     2    
##  2 mari~ orangespin~ acti~ perc~ acant~ naso  litura~ telemetry     8    
##  3 mari~ bluespine ~ acti~ perc~ acant~ naso  unicor~ telemetry     7    
##  4 lake~ rock bass   acti~ perc~ centr~ ambl~ rupest~ mark-recaptu~ 16   
##  5 lake~ pumpkinseed acti~ perc~ centr~ lepo~ gibbos~ telemetry     4    
##  6 lake~ largemouth~ acti~ perc~ centr~ micr~ salmoi~ telemetry     9    
##  7 mari~ bermuda ch~ acti~ perc~ kypho~ kyph~ sectat~ telemetry     11   
##  8 mari~ california~ acti~ perc~ labri~ semi~ pulcher telemetry     16   
##  9 mari~ schoolmast~ acti~ perc~ lutja~ lutj~ apodus  telemetry     15   
## 10 mari~ gray snapp~ acti~ perc~ lutja~ lutj~ griseus telemetry     14   
## # ... with 133 more rows, and 17 more variables: mean.mass.g <dbl>,
## #   log10.mass <dbl>, alternative.mass.reference <chr>, mean.hra.m2 <dbl>,
## #   log10.hra <dbl>, hra.reference <chr>, realm <chr>, thermoregulation <chr>,
## #   locomotion <chr>, trophic.guild <chr>, dimension <chr>, preymass <dbl>,
## #   log10.preymass <dbl>, PPMR <dbl>, prey.size.reference <chr>,
## #   mass_category <chr>, range_category <chr>
```
…
