…
```r
fisheries_tidy%>%
  count(country,sort=T)
```

```
## # A tibble: 203 x 2
##    country                      n
##    <fct>                    <int>
##  1 United States of America 18080
##  2 Spain                    17482
##  3 Japan                    15429
##  4 Portugal                 11570
##  5 Korea, Republic of       10824
##  6 France                   10639
##  7 Taiwan Province of China  9927
##  8 Indonesia                 9274
##  9 Australia                 8183
## 10 Un. Sov. Soc. Rep.        7084
## # ... with 193 more rows
```
…
```
##  [1] "country"                 "common_name"            
##  [3] "isscaap_group_number"    "isscaap_taxonomic_group"
##  [5] "asfis_species_number"    "asfis_species_name"     
##  [7] "fao_major_fishing_area"  "measure"                
##  [9] "year"                    "catch"
```

```r
fisheries_tidy
```

```
## # A tibble: 376,771 x 10
##    country common_name isscaap_group_n~ isscaap_taxonom~ asfis_species_n~
##    <fct>   <chr>       <fct>            <chr>            <fct>           
##  1 Albania Angelshark~ 38               Sharks, rays, c~ 10903XXXXX      
##  2 Albania Angelshark~ 38               Sharks, rays, c~ 10903XXXXX      
##  3 Albania Angelshark~ 38               Sharks, rays, c~ 10903XXXXX      
##  4 Albania Angelshark~ 38               Sharks, rays, c~ 10903XXXXX      
##  5 Albania Angelshark~ 38               Sharks, rays, c~ 10903XXXXX      
##  6 Albania Angelshark~ 38               Sharks, rays, c~ 10903XXXXX      
##  7 Albania Angelshark~ 38               Sharks, rays, c~ 10903XXXXX      
##  8 Albania Angelshark~ 38               Sharks, rays, c~ 10903XXXXX      
##  9 Albania Angelshark~ 38               Sharks, rays, c~ 10903XXXXX      
## 10 Albania Angelshark~ 38               Sharks, rays, c~ 10903XXXXX      
## # ... with 376,761 more rows, and 5 more variables: asfis_species_name <chr>,
## #   fao_major_fishing_area <fct>, measure <chr>, year <dbl>, catch <dbl>
```

4. Refocus the data only to include only: country, isscaap_taxonomic_group, asfis_species_name, asfis_species_number, year, catch.


```r
fisheries_tidy%>%
  select(country, isscaap_taxonomic_group, asfis_species_name, asfis_species_number, year, catch)
```

```
## # A tibble: 376,771 x 6
##    country isscaap_taxonomic_g~ asfis_species_na~ asfis_species_num~  year catch
##    <fct>   <chr>                <chr>             <fct>              <dbl> <dbl>
##  1 Albania Sharks, rays, chima~ Squatinidae       10903XXXXX          1995    NA
##  2 Albania Sharks, rays, chima~ Squatinidae       10903XXXXX          1996    53
##  3 Albania Sharks, rays, chima~ Squatinidae       10903XXXXX          1997    20
##  4 Albania Sharks, rays, chima~ Squatinidae       10903XXXXX          1998    31
##  5 Albania Sharks, rays, chima~ Squatinidae       10903XXXXX          1999    30
##  6 Albania Sharks, rays, chima~ Squatinidae       10903XXXXX          2000    30
##  7 Albania Sharks, rays, chima~ Squatinidae       10903XXXXX          2001    16
##  8 Albania Sharks, rays, chima~ Squatinidae       10903XXXXX          2002    79
##  9 Albania Sharks, rays, chima~ Squatinidae       10903XXXXX          2003     1
## 10 Albania Sharks, rays, chima~ Squatinidae       10903XXXXX          2004     4
## # ... with 376,761 more rows
```
…
```r
fisheries_tidy%>%
  select(country,year,catch)%>%
  filter(year==2000)%>%
  group_by(country)%>%
  filter(!is.na(catch)) %>%
  summarize(catch_total=sum(catch))%>%
  arrange(catch_total)
```

```
## # A tibble: 187 x 2
##    country                 catch_total
##    <fct>                         <dbl>
##  1 Congo, Dem. Rep. of the           0
##  2 Guadeloupe                        0
##  3 Haiti                             0
##  4 Monaco                            3
##  5 Antigua and Barbuda               4
##  6 Wallis and Futuna Is.             4
##  7 Bosnia and Herzegovina            5
##  8 Pitcairn Islands                  5
##  9 Turks and Caicos Is.              6
## 10 French Guiana                     7
## # ... with 177 more rows
```
#China had the largest catch in 2000
7. Which country caught the most sardines (_Sardina pilchardus_) between the years 1990-2000?

```r
fisheries_tidy%>%
  select(country,asfis_species_name,year,catch)%>%
  filter(asfis_species_name=="Sardina pilchardus",between(year,1990,2000))%>%
  group_by(country)%>%
  filter(!is.na(catch))%>%
  summarize(catch_total=sum(catch))%>%
  arrange(catch_total)
```

```
## # A tibble: 37 x 2
##    country    catch_total
##    <fct>            <dbl>
##  1 Mauritania           0
##  2 Norway               1
##  3 Panama               2
##  4 Honduras             4
##  5 Other nei            6
##  6 Ireland              7
##  7 China                8
##  8 Belize              15
##  9 Cyprus              17
## 10 Poland              18
## # ... with 27 more rows
```
…
```r
fisheries_tidy%>%
  select(country,isscaap_taxonomic_group,year,catch)%>%
  filter(isscaap_taxonomic_group=="Squids, cuttlefishes, octopuses",between(year,2008,2012))%>%
  group_by(country)%>%
  filter(!is.na(catch))%>%
  summarize(catch_total=sum(catch))%>%
  arrange(catch_total)
```

```
## # A tibble: 116 x 2
##    country                    catch_total
##    <fct>                            <dbl>
##  1 "China, Hong Kong SAR"               0
##  2 "Korea, Dem. People's Rep"           0
##  3 "Libya"                              0
##  4 "Sri Lanka"                          0
##  5 "Viet Nam"                           0
##  6 "American Samoa"                     1
##  7 "Netherlands"                        1
##  8 "New Caledonia"                      1
##  9 "R\xe9union"                         1
## 10 "Vanuatu"                            1
## # ... with 106 more rows
```
…
9. Which species had the highest catch total between 2008-2012? (hint: Osteichthyes is not a species)

```r
fisheries_tidy%>%
  select(common_name,asfis_species_name,year,catch)%>%
  filter(between(year,2008,2012))%>%
  group_by(asfis_species_name)%>%
  filter(!is.na(catch))%>%
  summarize(catch_total=sum(catch))%>%
  arrange(desc(catch_total))
```

```
## # A tibble: 1,353 x 2
##    asfis_species_name    catch_total
##    <chr>                       <dbl>
##  1 Osteichthyes               107808
##  2 Theragra chalcogramma       41075
##  3 Engraulis ringens           35523
##  4 Katsuwonus pelamis          32153
##  5 Trichiurus lepturus         30400
##  6 Clupea harengus             28527
##  7 Thunnus albacares           20119
##  8 Scomber japonicus           14723
##  9 Gadus morhua                13253
## 10 Thunnus alalunga            12019
## # ... with 1,343 more rows
```
##Theragra chalcogramma has the highest catch total for 2008-2012

10. Use the data to do at least one analysis of your choice.

```r
fisheries_tidy%>%
  group_by(country)%>%
  filter(!is.na(catch))%>%
  summarise(mean_catch=mean(catch))%>%
  arrange(mean_catch)
```

```
## # A tibble: 199 x 2
##    country                  mean_catch
##    <fct>                         <dbl>
##  1 Guadeloupe                    0.219
##  2 Bonaire/S.Eustatius/Saba      1    
##  3 Sint Maarten                  1    
##  4 Monaco                        1.95 
##  5 Ethiopia                      3.18 
##  6 Bosnia and Herzegovina        3.95 
##  7 Pitcairn Islands              4.13 
##  8 Haiti                         5.24 
##  9 Libya                         6.61 
## 10 Turks and Caicos Is.          7.12 
## # ... with 189 more rows
```
…
